{
    "items": [
        {
            "customer": "Герасимов.Г.А",
            "gang": "Смена1",
            "logbook": "18.05.16",
            "price": "6543"
        },
        {
            "customer": "Пельмешков.О.О",
            "gang": "Смена1",
            "logbook": "18.05.16",
            "price": "2345"
        },
        {
            "customer": "Красинов.Г.Г",
            "gang": "Смена2",
            "logbook": "19.05.16",
            "price": "987654"
        },
        {
            "customer": "Ежов.О.Р",
            "gang": "Смена2",
            "logbook": "19.05.16",
            "price": "23456"
        },
        {
            "customer": "Москвичев.С.С",
            "gang": "Смена1",
            "logbook": "20.05.16",
            "price": "987654"
        },
        {
            "customer": "Дудь.Ж.Ж",
            "gang": "Смена1",
            "logbook": "20.05.16",
            "price": "23456"
        }
    ]
}
